{
	"highLevelDivisionElements": {
	    "name": "act",
	 	"child": {
			"name": "part",
		    "plural": "parts",
		    "child": {
		      	"name": "book",
		      	"plural": "books",
		      	"child": {
		        	"name": "title",
		        	"plural": "titles",
		        	"child": {
		          		"name": "chapter",
		          		"plural": "chapters",
		          		"child": {
		            		"name": "section",
		            		"plural": "sections",
		            		"child": {
		            			"name": "subsection",
		            			"plural": "subsections"
		         			}
		          		}
		        	}
		      	}
		    }
		}
	},
  "basicElements": {
    "name": "article",
    "plural": "articles"
  },
  "subDivisionElements": {
    "name": "paragraph",
    "plural": "paragraphs",
    "child": {
      "name": "alinea",
      "plural": "alineas"
    }
  },
  "commonProperties": {
    "id": {
      "type": "string"
    },
    "title": {
      "type": "string"
    },
    "num": {
      "type": "string"
    },
    "block": {
      "type": "string"
    }
  }
}