AVR
AVR.
AVRIL
AOU
AOÛ
AOU.
AOÛ.
AOUT
AOÛT
AUTOMNE
Avr
Avr.
Avril
Aou
Aoû
Aou.
Aoû.
Aout
Août
Automne
DEC
DEC.
DÉC
DÉC.
DECEMBRE
DÉCEMBRE
Dec
Dec.
Déc
Déc.
Decembre
Décembre
FEV
FEV.
FÉV
FÉV.
FEVRIER
FÉVRIER
Fev
Fev.
Fév
Fév.
Fevrier
Février
JANV
JANV.
JA
JA.
JAN
JAN.
Jan
Jan.
JUI
JUI.
JUILLET
Jui
Jui.
JUN
JUN.
JUIN
Jan
Jan.
Janvier
Juin
Juin.
Juin
Jun
Jun.
JUIN
MAR
MAR.
MARS
MAI
Mar
Mar.
Mars
Mai
NOV
NOV.
NOVEMBRE
Nov
Nov.
Novembre
OCT
OCT.
OCTOBRE
Oct
Oct.
Octobre
SEP
SEP.
SEPT
SEPT.
SEPTEMBRE
Sep
Sep.
Sept
Sept.
Septembre
Ete
Hiver
avr
avr.
avril
aou
aoû
aou.
aoû.
aout
août
automne
dec
déc
dec.
déc.
decembre
décembre
fev
fév
fev.
fév.
fevrier
février
jan
jan.
janvier
jui
jui.
juillet
jun
jun.
juin
mar
mar.
mars
mai
nov
nov.
novembre
oct
oct.
octobre
sep
sep.
sept
sept.
septembre
ete
hiver










